<?xml version="1.0" standalone="no"?>
<!DOCTYPE svg PUBLIC "-//W3C//DTD SVG 1.1//EN" "http://www.w3.org/Graphics/SVG/1.1/DTD/svg11.dtd" >
<svg xmlns="http://www.w3.org/2000/svg" xmlns:xlink="http://www.w3.org/1999/xlink" version="1.1">
<metadata>
Created by FontForge 20190801 at Mon Jun  4 12:20:55 2012
 By Jimmy Wärting
Copyright (c) Mark Simonson, 2005. All rights reserved.
</metadata>
<defs>
<font id="ProximaNova-Bold" horiz-adv-x="1400" >
  <font-face 
    font-family="Proxima Nova Rg"
    font-weight="700"
    font-stretch="normal"
    units-per-em="2048"
    panose-1="2 0 5 6 3 0 0 2 0 4"
    ascent="1618"
    descent="-430"
    x-height="989"
    cap-height="1366"
    bbox="-209 -408 2132 1849"
    underline-thickness="40"
    underline-position="-271"
    unicode-range="U+0020-FB04"
  />
<missing-glyph horiz-adv-x="2048" 
 />
    <glyph glyph-name="uniFB01" unicode="fi" horiz-adv-x="1187" 
d="M25 762v227h163v41q0 168 92.5 262t239.5 94q114 0 189 -40l-54 -193q-30 21 -84 21q-57 0 -89.5 -37t-32.5 -107v-41h200v-227h-200v-762h-261v762h-163zM774 1251q0 64 45.5 109t108.5 45q65 0 110 -45t45 -109q0 -65 -45.5 -110t-109.5 -45q-63 0 -108.5 45.5
t-45.5 109.5zM799 0v989h260v-989h-260z" />
    <glyph glyph-name="uniFB02" unicode="fl" horiz-adv-x="1187" 
d="M25 762v227h163v41q0 168 92.5 262t239.5 94q114 0 189 -40l-54 -193q-30 21 -84 21q-57 0 -89.5 -37t-32.5 -107v-41h200v-227h-200v-762h-261v762h-163zM799 0v1366h260v-1366h-260z" />
    <glyph glyph-name="uniFB03" unicode="ffi" horiz-adv-x="1857" 
d="M25 762v227h163v41q0 166 90.5 261t241.5 95q176 0 258 -94l-98 -157q-42 39 -109 39q-57 0 -89.5 -37t-32.5 -107v-41h200v-227h-200v-762h-261v762h-163zM694 762v227h164v41q0 168 92.5 262t239.5 94q113 0 188 -40l-53 -193q-30 21 -84 21q-57 0 -90 -37t-33 -107
v-41h201v-227h-201v-762h-260v762h-164zM1446 1251q0 64 45 109t108 45q65 0 110.5 -45t45.5 -109t-45.5 -109.5t-110.5 -45.5q-63 0 -108 45.5t-45 109.5zM1470 0v989h261v-989h-261z" />
    <glyph glyph-name="uniFB04" unicode="ffl" horiz-adv-x="1857" 
d="M25 762v227h163v41q0 166 90.5 261t241.5 95q176 0 258 -94l-98 -157q-42 39 -109 39q-57 0 -89.5 -37t-32.5 -107v-41h200v-227h-200v-762h-261v762h-163zM694 762v227h164v41q0 168 92.5 262t239.5 94q113 0 188 -40l-53 -193q-30 21 -84 21q-57 0 -90 -37t-33 -107
v-41h201v-227h-201v-762h-260v762h-164zM1470 0v1366h261v-1366h-261z" />
    <glyph glyph-name=".notdef" horiz-adv-x="2048" 
 />
    <glyph glyph-name="glyph1" horiz-adv-x="0" 
 />
    <glyph glyph-name="glyph2" horiz-adv-x="2048" 
 />
    <glyph glyph-name="space" unicode=" " horiz-adv-x="526" 
 />
    <glyph glyph-name="exclam" unicode="!" horiz-adv-x="522" 
d="M98 143q0 68 48.5 117t115.5 49q68 0 117 -49.5t49 -116.5q0 -66 -49.5 -114.5t-116.5 -48.5t-115.5 48.5t-48.5 114.5zM104 1366h314l-41 -920h-230z" />
    <glyph glyph-name="quotedbl" unicode="&#x22;" horiz-adv-x="831" 
d="M90 1245q0 59 41 100t100 41q57 0 99.5 -41.5t42.5 -99.5q0 -17 -21 -136.5t-42 -230.5l-21 -110h-115q-84 438 -84 477zM461 1245q0 59 41.5 100t99.5 41t99.5 -41t41.5 -100q0 -17 -21 -136.5t-42 -230.5l-21 -110h-114q-84 438 -84 477z" />
    <glyph glyph-name="numbersign" unicode="#" horiz-adv-x="1265" 
d="M35 348l53 166h201l110 338h-198l51 164h205l114 350h193l-115 -350h193l114 350h195l-119 -350h199l-47 -164h-207l-113 -338h207l-51 -166h-211l-115 -348h-194l118 348h-194l-117 -348h-192l116 348h-196zM481 514h191l112 338h-192z" />
    <glyph glyph-name="dollar" unicode="$" horiz-adv-x="1257" 
d="M61 193l160 227q134 -141 326 -176v317q-61 15 -106.5 29t-100.5 37.5t-93.5 53.5t-72.5 70.5t-51 96t-17 123.5q0 159 119 274.5t322 136.5v191h192v-195q249 -27 418 -182l-162 -217q-103 95 -256 133v-283q53 -13 92.5 -25t89.5 -31.5t85.5 -41t72.5 -53t59.5 -68.5
t37 -87t14.5 -109q0 -176 -116 -293.5t-335 -140.5v-185h-192v185q-298 25 -486 213zM406 993q0 -41 35.5 -67t105.5 -49v247q-67 -9 -104 -43.5t-37 -87.5zM739 240q75 14 114.5 53.5t39.5 91.5q0 47 -38.5 75.5t-115.5 53.5v-274z" />
    <glyph glyph-name="percent" unicode="%" horiz-adv-x="1552" 
d="M53 1044q0 147 96 244.5t250 97.5q156 0 252.5 -97.5t96.5 -244.5q0 -145 -96.5 -241t-252.5 -96q-154 0 -250 96t-96 241zM238 1044q0 -80 45.5 -129t115.5 -49q72 0 118 48.5t46 129.5q0 83 -46 133t-118 50q-70 0 -115.5 -50t-45.5 -133zM266 0l873 1366h155
l-874 -1366h-154zM805 313q0 147 96 245.5t250 98.5t251 -98.5t97 -245.5q0 -145 -97 -241.5t-251 -96.5t-250 96.5t-96 241.5zM989 313q0 -82 45 -130t117 -48t118 48t46 130q0 83 -46 133t-118 50t-117 -49.5t-45 -133.5z" />
    <glyph glyph-name="ampersand" unicode="&#x26;" horiz-adv-x="1325" 
d="M49 371q0 75 23 137t66.5 109t92 81.5t113.5 67.5q-90 164 -90 293q0 139 110 233t279 94q151 0 254.5 -77.5t103.5 -210.5q0 -60 -19.5 -112t-48 -87.5t-77 -70.5t-88 -56t-100.5 -49q71 -96 116 -148q58 -73 117 -141q83 131 125 266l207 -96q-89 -198 -191 -328
q70 -77 265 -276h-332q-52 49 -103 102q-166 -127 -372 -127q-197 0 -324 103t-127 293zM326 395q0 -97 61.5 -156t149.5 -59q100 0 196 70q-107 119 -151 174q-91 112 -138 180q-118 -84 -118 -209zM512 1053q0 -80 59 -185q99 48 152 97t53 118q0 53 -34.5 84t-86.5 31
q-61 0 -102 -40.5t-41 -104.5z" />
    <glyph glyph-name="quotesingle" unicode="'" horiz-adv-x="460" 
d="M90 1245q0 59 41 100t100 41q57 0 99.5 -41.5t42.5 -99.5q0 -17 -21 -136.5t-42 -230.5l-21 -110h-115q-84 438 -84 477z" />
    <glyph glyph-name="parenleft" unicode="(" horiz-adv-x="608" 
d="M84 498q0 248 88 493t238 412l161 -123q-107 -194 -156.5 -376.5t-49.5 -405.5t50 -406t156 -373l-161 -127q-150 167 -238 412t-88 494z" />
    <glyph glyph-name="parenright" unicode=")" horiz-adv-x="610" 
d="M37 -281l162 -127q150 167 238.5 412.5t88.5 493.5t-88.5 493t-238.5 412l-162 -123q107 -193 157 -375.5t50 -406.5q0 -223 -50 -406.5t-157 -372.5z" />
    <glyph glyph-name="asterisk" unicode="*" horiz-adv-x="718" 
d="M51 965l199 104l-199 102l66 111l188 -121l-10 225h129l-10 -225l188 121l66 -111l-199 -102l199 -104l-66 -111l-188 121l10 -225h-129l10 225l-188 -121z" />
    <glyph glyph-name="plus" unicode="+" horiz-adv-x="1032" 
d="M59 610v162h369v402h178v-402h367v-162h-367v-415h-178v415h-369z" />
    <glyph glyph-name="comma" unicode="," horiz-adv-x="522" 
d="M96 145q0 67 48 115.5t114 48.5q76 0 129 -56.5t53 -152.5q0 -113 -56.5 -212.5t-154.5 -168.5l-112 93q51 27 98 83.5t59 108.5q-18 -6 -38 -6q-59 0 -99.5 41.5t-40.5 105.5z" />
    <glyph glyph-name="hyphen" unicode="-" horiz-adv-x="614" 
d="M61 385v221h492v-221h-492z" />
    <glyph glyph-name="period" unicode="." horiz-adv-x="526" 
d="M96 143q0 67 49 116.5t117 49.5t117 -49.5t49 -116.5t-49 -116.5t-117 -49.5t-117 49.5t-49 116.5z" />
    <glyph glyph-name="slash" unicode="/" horiz-adv-x="673" 
d="M0 -41l485 1448h189l-486 -1448h-188z" />
    <glyph glyph-name="zero" unicode="0" horiz-adv-x="1269" 
d="M70 682q0 136 34 259t101 224t178 161t252 60t252 -60t178 -161t101 -224t34 -259t-34 -259.5t-101 -225t-178 -162t-252 -60.5t-252 60.5t-178 162t-101 225t-34 259.5zM367 682q0 -132 25.5 -229.5t87 -158.5t155.5 -61t155.5 61t87 158.5t25.5 229.5t-25 228.5
t-86.5 157t-156.5 60.5q-71 0 -124 -33.5t-83.5 -95.5t-45.5 -140.5t-15 -176.5z" />
    <glyph glyph-name="one" unicode="1" horiz-adv-x="841" 
d="M23 934l430 432h254v-1366h-291v991l-228 -231z" />
    <glyph glyph-name="two" unicode="2" horiz-adv-x="1228" 
d="M66 1163q96 111 236 167t290 56q147 0 265 -51.5t187.5 -151.5t69.5 -233q0 -167 -132.5 -328t-414.5 -366h557v-256h-1028v229q153 113 249 186t185.5 146.5t138 121t86 97t51 88.5t13.5 82q0 86 -64.5 132t-156.5 46q-217 0 -367 -157z" />
    <glyph glyph-name="three" unicode="3" horiz-adv-x="1202" 
d="M41 195l154 194q68 -72 170 -114t204 -42q122 0 190 48.5t68 126.5q0 82 -65.5 119.5t-208.5 37.5q-130 0 -170 -4v262q25 -2 170 -2q118 0 186 36.5t68 109.5q0 78 -71 119.5t-183 41.5q-201 0 -348 -141l-146 182q193 217 523 217q239 0 377.5 -99.5t138.5 -270.5
q0 -122 -88 -205.5t-211 -105.5q54 -5 108.5 -28.5t102.5 -63t78 -101.5t30 -135q0 -179 -147 -290.5t-391 -111.5q-179 0 -319 61t-220 159z" />
    <glyph glyph-name="four" unicode="4" horiz-adv-x="1222" 
d="M51 283v229l543 854h401v-827h176v-256h-176v-283h-290v283h-654zM336 539h369v569z" />
    <glyph glyph-name="five" unicode="5" horiz-adv-x="1245" 
d="M100 180l162 203q144 -150 363 -150q118 0 186 58t68 145q0 92 -65.5 147.5t-180.5 55.5q-170 0 -287 -111l-203 56v782h938v-256h-647v-334q52 52 131 83.5t170 31.5q117 0 216 -52t161 -154.5t62 -235.5q0 -216 -149.5 -345t-397.5 -129q-338 0 -527 205z" />
    <glyph glyph-name="six" unicode="6" horiz-adv-x="1245" 
d="M70 680q0 208 74.5 366.5t219.5 249t343 90.5q242 0 403 -141l-131 -223q-58 55 -121 80.5t-151 25.5q-149 0 -245.5 -111t-96.5 -276q0 -18 2 -28q50 73 146.5 124.5t203.5 51.5q126 0 230.5 -49.5t170.5 -152.5t66 -243q0 -202 -147 -335.5t-378 -133.5
q-151 0 -266.5 55.5t-184.5 153.5t-103.5 223t-34.5 273zM367 510q5 -52 22 -99t48.5 -88t84.5 -65.5t121 -24.5q111 0 177.5 62t66.5 139q0 101 -73 153t-179 52q-77 0 -148 -34t-120 -95z" />
    <glyph glyph-name="seven" unicode="7" horiz-adv-x="1116" 
d="M49 1110v256h1026v-203l-508 -1163h-319l489 1110h-688z" />
    <glyph glyph-name="eight" unicode="8" horiz-adv-x="1241" 
d="M72 354q0 120 82 213t211 138q-271 94 -271 321q0 93 46 164.5t123 113t168 62t190 20.5q78 0 151.5 -12.5t142 -40.5t120 -68.5t82 -102t30.5 -136.5q0 -226 -270 -321q128 -45 210 -138t82 -213q0 -122 -78.5 -210t-200 -128.5t-269.5 -40.5q-110 0 -207.5 24
t-174.5 69.5t-122 119.5t-45 166zM367 395q0 -72 72.5 -117t181.5 -45q107 0 180 45t73 117q0 40 -27 73.5t-69 54t-81.5 33t-75.5 17.5q-37 -5 -77 -17.5t-81.5 -33t-68.5 -54t-27 -73.5zM389 977q0 -35 23.5 -64t62 -47.5t74 -29.5t72.5 -17q37 6 72.5 17t73 29.5
t60.5 47.5t23 64q0 71 -63.5 111t-165.5 40q-104 0 -168 -40t-64 -111z" />
    <glyph glyph-name="nine" unicode="9" horiz-adv-x="1245" 
d="M63 920q0 202 146 335.5t377 133.5q151 0 266.5 -55.5t185 -153.5t104 -223t34.5 -273q0 -208 -74.5 -367t-219.5 -249.5t-343 -90.5q-243 0 -402 142l129 223q58 -54 121.5 -80t151.5 -26q108 0 187.5 56.5t117 142t37.5 186.5v30q-53 -74 -149.5 -125t-203.5 -51
q-126 0 -230 49.5t-169.5 152.5t-65.5 243zM358 930q0 -68 37.5 -116t92.5 -68.5t122 -20.5q78 0 149 34t120 95q-5 52 -22.5 99t-49 88t-84.5 65t-121 24q-111 0 -177.5 -61.5t-66.5 -138.5z" />
    <glyph glyph-name="colon" unicode=":" horiz-adv-x="503" 
d="M96 143q0 67 49 116.5t117 49.5t117 -49.5t49 -116.5t-49 -116.5t-117 -49.5t-117 49.5t-49 116.5zM96 838q0 68 49 117t117 49t117 -49t49 -117t-49 -117t-117 -49t-117 49t-49 117z" />
    <glyph glyph-name="semicolon" unicode=";" horiz-adv-x="522" 
d="M96 154q0 67 48 115t114 48q76 0 129 -57t53 -154q0 -111 -56.5 -210t-154.5 -168l-112 92q51 27 98 83.5t59 108.5q-18 -6 -38 -6q-59 0 -99.5 42t-40.5 106zM96 840q0 67 49 115.5t117 48.5t117 -48.5t49 -115.5q0 -68 -49.5 -118t-116.5 -50t-116.5 50t-49.5 118z" />
    <glyph glyph-name="less" unicode="&#x3c;" horiz-adv-x="1032" 
d="M59 592v188l914 408v-193l-727 -311l727 -307v-193z" />
    <glyph glyph-name="equal" unicode="=" horiz-adv-x="1032" 
d="M59 412v159h914v-159h-914zM59 797v161h914v-161h-914z" />
    <glyph glyph-name="greater" unicode="&#x3e;" horiz-adv-x="1032" 
d="M59 184v193l727 307l-727 311v193l914 -408v-188z" />
    <glyph glyph-name="question" unicode="?" horiz-adv-x="933" 
d="M18 1188q81 96 198.5 147t250.5 51q196 0 311 -89.5t115 -233.5q0 -61 -19 -112t-49 -87t-66.5 -66.5t-73 -56.5t-66.5 -51t-49 -55.5t-19 -65.5q0 -55 39 -86l-225 -65q-68 74 -68 182q0 67 31 121t75.5 89t88.5 65t75 64.5t31 72.5q0 51 -41 83.5t-121 32.5
q-149 0 -252 -127zM297 143q0 67 49.5 116.5t116.5 49.5t116.5 -49.5t49.5 -116.5t-49.5 -116.5t-116.5 -49.5t-116.5 49.5t-49.5 116.5z" />
    <glyph glyph-name="at" unicode="@" horiz-adv-x="1603" 
d="M72 500q0 160 67.5 309.5t178.5 258t260.5 174t306.5 65.5q144 0 266 -50t204.5 -135t128.5 -199.5t46 -242.5q0 -123 -38 -223t-98.5 -160t-130.5 -91.5t-139 -31.5q-86 0 -136 43.5t-62 108.5l-2 12q-54 -76 -133 -120t-162 -44q-147 0 -232.5 96t-85.5 248
q0 133 66 250t172.5 184.5t224.5 67.5q90 0 156 -37.5t100 -99.5l23 108h231l-104 -499q-6 -30 -6 -50q0 -45 20.5 -68.5t54.5 -23.5q32 0 64.5 19.5t62 57.5t48 104t18.5 149q0 245 -154 396t-411 151q-142 0 -275.5 -59.5t-231.5 -158t-157 -231.5t-59 -274
q0 -159 74 -289.5t206.5 -205.5t296.5 -75q194 0 373 113l43 -61q-200 -129 -426 -129q-183 0 -332 85t-233 232t-84 326zM551 539q0 -81 45.5 -131t122.5 -50q130 0 227 136l51 237q-18 41 -60.5 73t-105.5 32q-119 0 -199.5 -90t-80.5 -207z" />
    <glyph glyph-name="A" unicode="A" 
d="M-8 0l526 1366h365l526 -1366h-330l-86 231h-585l-86 -231h-330zM487 487h426l-213 588z" />
    <glyph glyph-name="B" unicode="B" horiz-adv-x="1357" 
d="M135 0v1366h719q94 0 170.5 -28.5t124 -77.5t73 -111t25.5 -131q0 -123 -67 -207.5t-168 -105.5q111 -17 186.5 -112t75.5 -222q0 -162 -104 -266.5t-293 -104.5h-742zM426 256h377q82 0 128 41.5t46 114.5q0 67 -46 111t-128 44h-377v-311zM426 823h365q73 0 116 39
t43 105q0 64 -43 103.5t-116 39.5h-365v-287z" />
    <glyph glyph-name="C" unicode="C" horiz-adv-x="1406" 
d="M70 682q0 207 96 369t262 250t371 88q108 0 200.5 -27.5t161 -76t119 -105t88.5 -125.5l-250 -123q-44 86 -131 142t-188 56q-187 0 -308.5 -127t-121.5 -321t121.5 -321.5t308.5 -127.5q101 0 188 56.5t131 142.5l250 -121q-39 -69 -88.5 -125.5t-118.5 -105.5
t-161.5 -77t-200.5 -28q-153 0 -287.5 52t-232 143.5t-153.5 224t-56 287.5z" />
    <glyph glyph-name="D" unicode="D" horiz-adv-x="1470" 
d="M135 0v1366h539q322 0 523.5 -188t201.5 -494q0 -204 -91.5 -360t-255.5 -240t-376 -84h-541zM426 256h248q131 0 230 59t148.5 155t49.5 214q0 187 -112 306.5t-314 119.5h-250v-854z" />
    <glyph glyph-name="E" unicode="E" horiz-adv-x="1193" 
d="M135 0v1366h967v-256h-676v-287h661v-256h-661v-311h676v-256h-967z" />
    <glyph glyph-name="F" unicode="F" horiz-adv-x="1169" 
d="M135 0v1366h967v-256h-676v-287h661v-256h-661v-567h-291z" />
    <glyph glyph-name="G" unicode="G" horiz-adv-x="1474" 
d="M70 682q0 210 99 373t264 248.5t366 85.5q102 0 192 -24.5t158.5 -68.5t120.5 -96.5t92 -116.5l-240 -131q-51 77 -136 127.5t-187 50.5q-187 0 -308.5 -127t-121.5 -321t121.5 -321.5t308.5 -127.5q85 0 163.5 31.5t124.5 73.5v164h-360v254h651v-525
q-228 -256 -579 -256q-201 0 -366 86t-264 248.5t-99 372.5z" />
    <glyph glyph-name="H" unicode="H" horiz-adv-x="1497" 
d="M135 0v1366h291v-537h645v537h293v-1366h-293v575h-645v-575h-291z" />
    <glyph glyph-name="I" unicode="I" horiz-adv-x="561" 
d="M135 0v1366h291v-1366h-291z" />
    <glyph glyph-name="J" unicode="J" horiz-adv-x="995" 
d="M12 111l127 221q103 -99 217 -99q96 0 154.5 60.5t58.5 159.5v913h293v-917q0 -233 -131.5 -353.5t-349.5 -120.5q-230 0 -369 136z" />
    <glyph glyph-name="K" unicode="K" horiz-adv-x="1302" 
d="M135 0v1366h291v-608l483 608h359l-543 -641l580 -725h-359l-414 549l-106 -129v-420h-291z" />
    <glyph glyph-name="L" unicode="L" horiz-adv-x="1054" 
d="M123 0v1366h293v-1110h577v-256h-870z" />
    <glyph glyph-name="M" unicode="M" horiz-adv-x="1751" 
d="M135 0v1366h408l331 -854l332 854h410v-1366h-293v985l-385 -985h-127l-385 985v-985h-291z" />
    <glyph glyph-name="N" unicode="N" horiz-adv-x="1492" 
d="M135 0v1366h299l633 -858v858h291v-1366h-281l-651 891v-891h-291z" />
    <glyph glyph-name="O" unicode="O" horiz-adv-x="1566" 
d="M70 682q0 152 53.5 284t147.5 224.5t227 145.5t286 53q204 0 366.5 -90t254.5 -252t92 -365t-92 -365t-254.5 -252t-366.5 -90q-153 0 -286 53t-227 145.5t-147.5 224.5t-53.5 284zM369 682q0 -194 114 -321.5t301 -127.5q186 0 300 127.5t114 321.5q0 195 -114 321.5
t-300 126.5q-188 0 -301.5 -126.5t-113.5 -321.5z" />
    <glyph glyph-name="P" unicode="P" horiz-adv-x="1280" 
d="M135 0v1366h639q108 0 196.5 -35t145 -95t87 -139.5t30.5 -170.5q0 -90 -30.5 -169t-87.5 -139.5t-145 -95.5t-196 -35h-348v-487h-291zM426 743h307q88 0 145.5 50t57.5 133q0 84 -57.5 134t-145.5 50h-307v-367z" />
    <glyph glyph-name="Q" unicode="Q" horiz-adv-x="1566" 
d="M70 682q0 152 53.5 284t147.5 224.5t227 145.5t286 53q204 0 366.5 -90t254.5 -252t92 -365q0 -286 -178 -483l100 -117l-202 -166l-111 127q-149 -68 -322 -68q-153 0 -286 53t-227 145.5t-147.5 224.5t-53.5 284zM369 682q0 -194 114 -321.5t301 -127.5q71 0 142 23
l-150 176l203 166l149 -176q70 112 70 260q0 195 -114 321.5t-300 126.5q-188 0 -301.5 -126.5t-113.5 -321.5z" />
    <glyph glyph-name="R" unicode="R" horiz-adv-x="1316" 
d="M135 0v1366h639q210 0 335.5 -123t125.5 -317q0 -86 -26 -159t-70 -121.5t-95.5 -80t-109.5 -45.5l309 -520h-336l-268 485h-213v-485h-291zM426 741h307q88 0 145.5 50.5t57.5 136.5q0 83 -57.5 132.5t-145.5 49.5h-307v-369z" />
    <glyph glyph-name="S" unicode="S" horiz-adv-x="1228" 
d="M41 193l160 227q79 -83 190.5 -135t243.5 -52q115 0 176 43.5t61 108.5q0 42 -34 72.5t-89 47t-125.5 35t-144.5 35t-144.5 48t-125.5 73t-89 112.5t-34 163q0 176 141.5 295.5t376.5 119.5q328 0 533 -190l-162 -217q-81 74 -185 111.5t-212 37.5q-91 0 -142 -36.5
t-51 -98.5q0 -38 33.5 -66t89 -43.5t126 -34t143.5 -35.5t143.5 -49.5t126 -75t89 -113.5t33.5 -162q0 -196 -140.5 -317.5t-405.5 -121.5q-364 0 -582 218z" />
    <glyph glyph-name="T" unicode="T" horiz-adv-x="1191" 
d="M51 1110v256h1090v-256h-398v-1110h-292v1110h-400z" />
    <glyph glyph-name="U" unicode="U" horiz-adv-x="1503" 
d="M135 547v819h295v-811q0 -146 83.5 -234t238.5 -88q154 0 236.5 87.5t82.5 234.5v811h297v-819q0 -128 -38.5 -232t-113 -180.5t-193 -118t-271.5 -41.5q-303 0 -460 155t-157 417z" />
    <glyph glyph-name="V" unicode="V" 
d="M-8 1366h330l378 -1049l379 1049h330l-526 -1366h-365z" />
    <glyph glyph-name="W" unicode="W" horiz-adv-x="1880" 
d="M2 1366h326l239 -987l260 987h228l258 -987l239 987h326l-389 -1366h-309l-240 938l-238 -938h-309z" />
    <glyph glyph-name="X" unicode="X" horiz-adv-x="1368" 
d="M-6 0l495 700l-464 666h346l313 -467l309 467h350l-464 -664l495 -702h-348l-342 500l-344 -500h-346z" />
    <glyph glyph-name="Y" unicode="Y" horiz-adv-x="1320" 
d="M-8 1366h332l338 -547l337 547h330l-522 -807v-559h-291v559z" />
    <glyph glyph-name="Z" unicode="Z" horiz-adv-x="1212" 
d="M86 0v236l645 874h-645v256h1026v-233l-645 -877h659v-256h-1040z" />
    <glyph glyph-name="bracketleft" unicode="[" horiz-adv-x="573" 
d="M96 -389v1778h443v-175h-254v-1429h254v-174h-443z" />
    <glyph glyph-name="backslash" unicode="\" horiz-adv-x="673" 
d="M0 1407h188l486 -1448h-189z" />
    <glyph glyph-name="bracketright" unicode="]" horiz-adv-x="573" 
d="M37 -215h254v1429h-254v175h440v-1778h-440v174z" />
    <glyph glyph-name="asciicircum" unicode="^" horiz-adv-x="903" 
d="M39 682l319 684h191l315 -684h-192l-221 506l-220 -506h-192z" />
    <glyph glyph-name="underscore" unicode="_" horiz-adv-x="1155" 
d="M-6 -82h1167v-174h-1167v174z" />
    <glyph glyph-name="a" unicode="a" horiz-adv-x="1112" 
d="M68 303q0 67 20.5 122.5t54 91.5t79 60.5t92.5 35t96 10.5q100 0 182 -31.5t131 -89.5v125q0 75 -59.5 120.5t-157.5 45.5q-159 0 -285 -117l-102 182q173 156 432 156q90 0 164.5 -19t137 -61t97.5 -117t35 -178v-639h-262v104q-51 -61 -133.5 -95t-179.5 -34
q-61 0 -120.5 21t-109.5 60t-81 103.5t-31 143.5zM328 299q0 -68 53 -107.5t133 -39.5q65 0 121.5 22t87.5 64v122q-32 42 -88.5 65.5t-120.5 23.5q-79 0 -132.5 -41t-53.5 -109z" />
    <glyph glyph-name="b" unicode="b" horiz-adv-x="1200" 
d="M129 0v1366h260v-504q57 75 136 113.5t169 38.5q193 0 316 -140.5t123 -377.5q0 -243 -123 -382t-316 -139q-184 0 -305 152v-127h-260zM389 317q34 -48 97.5 -79t127.5 -31q112 0 181 80t69 209q0 128 -69 207t-181 79q-64 0 -127.5 -32t-97.5 -82v-351z" />
    <glyph glyph-name="c" unicode="c" horiz-adv-x="1021" 
d="M66 496q0 227 148 372.5t376 145.5q260 0 391 -178l-170 -160q-71 106 -209 106q-119 0 -193.5 -79t-74.5 -207q0 -129 74.5 -209t193.5 -80q134 0 209 108l170 -159q-57 -78 -154 -129.5t-237 -51.5q-228 0 -376 146.5t-148 374.5z" />
    <glyph glyph-name="d" unicode="d" horiz-adv-x="1200" 
d="M66 496q0 237 122.5 377.5t315.5 140.5q90 0 169 -38.5t136 -113.5v504h262v-1366h-262v127q-121 -152 -305 -152q-192 0 -315 139t-123 382zM334 496q0 -129 70 -209t182 -80q65 0 128 31.5t95 80.5v351q-32 49 -95 80.5t-128 31.5q-112 0 -182 -79t-70 -207z" />
    <glyph glyph-name="e" unicode="e" horiz-adv-x="1132" 
d="M66 496q0 143 65 261t183 187.5t264 69.5q222 0 358.5 -150.5t136.5 -392.5v-61h-735q14 -96 89 -159t196 -63q66 0 141.5 26.5t120.5 70.5l116 -172q-72 -66 -180.5 -102t-226.5 -36q-229 0 -378.5 143.5t-149.5 377.5zM336 590h487q-3 38 -18 73t-42.5 67t-75.5 51.5
t-109 19.5q-58 0 -104 -19t-74 -50.5t-44 -67t-20 -74.5z" />
    <glyph glyph-name="f" unicode="f" horiz-adv-x="669" 
d="M25 762v227h163v41q0 166 90.5 261t241.5 95q176 0 258 -94l-98 -157q-42 39 -109 39q-57 0 -89.5 -37t-32.5 -107v-41h200v-227h-200v-762h-261v762h-163z" />
    <glyph glyph-name="g" unicode="g" horiz-adv-x="1198" 
d="M66 510q0 237 121.5 370.5t314.5 133.5q188 0 307 -152v127h260v-923q0 -108 -32.5 -192t-84.5 -135t-124 -83.5t-143 -44.5t-150 -12q-131 0 -233 34t-193 113l116 186q112 -120 310 -120q51 0 96 12t87 39t66.5 79t24.5 124v96q-123 -154 -307 -154q-192 0 -314 131.5
t-122 370.5zM334 510q0 -126 69 -199t183 -73q62 0 125.5 32t97.5 80v322q-34 47 -97 78.5t-126 31.5q-114 0 -183 -73t-69 -199z" />
    <glyph glyph-name="h" unicode="h" horiz-adv-x="1187" 
d="M129 0v1366h262v-504q54 63 144 107.5t202 44.5q160 0 241 -82t81 -230v-702h-260v602q0 98 -47 139t-136 41q-71 0 -130 -33t-95 -81v-668h-262z" />
    <glyph glyph-name="i" unicode="i" horiz-adv-x="518" 
d="M104 1251q0 64 45.5 109t108.5 45q65 0 110.5 -45t45.5 -109t-45.5 -109.5t-110.5 -45.5q-63 0 -108.5 45.5t-45.5 109.5zM129 0v989h260v-989h-260z" />
    <glyph glyph-name="j" unicode="j" horiz-adv-x="518" 
d="M-209 -330l70 193q60 -51 133 -51q62 0 98.5 40.5t36.5 120.5v1016h260v-1016q0 -174 -89 -274t-263 -100q-90 0 -139.5 15.5t-106.5 55.5zM104 1251q0 64 45.5 109t108.5 45q65 0 110.5 -45t45.5 -109t-45.5 -109.5t-110.5 -45.5q-63 0 -108.5 45.5t-45.5 109.5z" />
    <glyph glyph-name="k" unicode="k" horiz-adv-x="1097" 
d="M129 0v1366h260v-817l375 440h319l-391 -448l404 -541h-326l-262 381l-119 -127v-254h-260z" />
    <glyph glyph-name="l" unicode="l" horiz-adv-x="518" 
d="M129 0v1366h260v-1366h-260z" />
    <glyph glyph-name="m" unicode="m" horiz-adv-x="1746" 
d="M129 0v989h260v-127q40 53 130.5 102.5t193.5 49.5q107 0 177 -46.5t97 -131.5q47 72 140 125t200 53q139 0 215 -75t76 -224v-715h-262v625q0 73 -36 115t-112 42q-63 0 -117.5 -34t-86.5 -80v-668h-263v625q0 157 -147 157q-62 0 -116.5 -34t-88.5 -80v-668h-260z" />
    <glyph glyph-name="n" unicode="n" horiz-adv-x="1185" 
d="M129 0v989h260v-127q54 63 144.5 107.5t201.5 44.5q160 0 242 -83.5t82 -232.5v-698h-262v598q0 98 -47.5 141t-135.5 43q-71 0 -129 -32.5t-96 -81.5v-668h-260z" />
    <glyph glyph-name="o" unicode="o" horiz-adv-x="1177" 
d="M66 496q0 142 61.5 258.5t182 188t278.5 71.5q159 0 280 -71.5t182.5 -188t61.5 -258.5t-61.5 -259.5t-182.5 -189.5t-280 -72q-158 0 -278.5 72t-182 189.5t-61.5 259.5zM336 496q0 -122 67.5 -205.5t184.5 -83.5q118 0 186 83t68 206q0 121 -68 203.5t-186 82.5
q-117 0 -184.5 -82.5t-67.5 -203.5z" />
    <glyph glyph-name="p" unicode="p" horiz-adv-x="1193" 
d="M129 -377v1366h260v-125q119 150 305 150q195 0 317 -138t122 -380t-122 -381.5t-317 -139.5q-183 0 -305 152v-504h-260zM389 322q33 -48 97 -81.5t126 -33.5q112 0 182 80t70 209q0 128 -70 207t-182 79q-63 0 -126 -31.5t-97 -80.5v-348z" />
    <glyph glyph-name="q" unicode="q" horiz-adv-x="1193" 
d="M63 496q0 242 121.5 380t315.5 138q186 0 305 -150v125h262v-1366h-262v504q-119 -152 -305 -152q-194 0 -315.5 139.5t-121.5 381.5zM332 496q0 -129 69.5 -209t180.5 -80q63 0 126.5 33.5t96.5 81.5v348q-32 49 -95 80.5t-128 31.5q-111 0 -180.5 -79.5t-69.5 -206.5z
" />
    <glyph glyph-name="r" unicode="r" horiz-adv-x="737" 
d="M129 0v989h260v-133q57 68 142.5 113t173.5 45v-254q-27 6 -72 6q-66 0 -139 -33.5t-105 -79.5v-653h-260z" />
    <glyph glyph-name="s" unicode="s" horiz-adv-x="976" 
d="M43 129l113 188q58 -55 155.5 -96t186.5 -41q82 0 124 28.5t42 76.5q0 32 -32.5 53t-84 33t-114 23.5t-125 31.5t-114 51t-84 88.5t-32.5 136.5q0 131 108 221.5t297 90.5q228 0 398 -135l-105 -185q-47 49 -126.5 82t-166.5 33q-70 0 -112.5 -27t-42.5 -69
q0 -26 25 -43.5t66.5 -27t94 -21.5t108 -23.5t108 -36t94 -56.5t66.5 -87t25 -127q0 -140 -114.5 -228t-315.5 -88q-129 0 -246.5 41t-195.5 113z" />
    <glyph glyph-name="t" unicode="t" horiz-adv-x="692" 
d="M18 762v227h164v271h260v-271h201v-227h-201v-445q0 -48 24 -79t66 -31q28 0 54 9t37 22l55 -199q-71 -64 -217 -64q-136 0 -207.5 69.5t-71.5 203.5v514h-164z" />
    <glyph glyph-name="u" unicode="u" horiz-adv-x="1185" 
d="M129 287v702h260v-600q0 -98 47 -140t135 -42q70 0 129 32t97 80v670h260v-989h-260v125q-59 -64 -147.5 -107t-200.5 -43q-159 0 -239.5 82t-80.5 230z" />
    <glyph glyph-name="v" unicode="v" horiz-adv-x="1050" 
d="M-12 989h278l258 -688l260 688h279l-397 -989h-281z" />
    <glyph glyph-name="w" unicode="w" horiz-adv-x="1576" 
d="M0 989h270l185 -665l217 665h231l217 -665l185 665h272l-301 -989h-279l-209 674l-208 -674h-279z" />
    <glyph glyph-name="x" unicode="x" horiz-adv-x="1032" 
d="M0 0l352 508l-332 481h291l205 -303l203 303h291l-330 -481l352 -508h-291l-225 334l-227 -334h-289z" />
    <glyph glyph-name="y" unicode="y" horiz-adv-x="1050" 
d="M-12 989h278l258 -688l260 688h279l-465 -1151q-52 -131 -144 -183.5t-231 -55.5q-77 0 -127 16l37 231q37 -16 82 -16q103 0 137 72l37 86z" />
    <glyph glyph-name="z" unicode="z" horiz-adv-x="980" 
d="M86 0v195l446 567h-446v227h801v-186l-455 -576h463v-227h-809z" />
    <glyph glyph-name="braceleft" unicode="{" horiz-adv-x="589" 
d="M8 426v147q52 0 79.5 39t27.5 99v350q0 147 93.5 237.5t223.5 90.5h123v-175h-123q-55 0 -92 -41.5t-37 -109.5v-379q0 -144 -94 -184q94 -40 94 -185v-376q0 -68 37 -111t92 -43h123v-174h-123q-130 0 -223.5 89.5t-93.5 236.5v352q0 60 -27.5 98.5t-79.5 38.5z" />
    <glyph glyph-name="bar" unicode="|" horiz-adv-x="442" 
d="M135 -41v1448h174v-1448h-174z" />
    <glyph glyph-name="braceright" unicode="}" horiz-adv-x="589" 
d="M35 -215h125q54 0 91.5 43t37.5 111v376q0 145 94 185q-94 40 -94 184v379q0 67 -37.5 109t-91.5 42h-125v175h125q129 0 223 -90.5t94 -237.5v-350q0 -60 27.5 -99t79.5 -39v-147q-52 0 -79.5 -38.5t-27.5 -98.5v-352q0 -146 -94 -236t-223 -90h-125v174z" />
    <glyph glyph-name="asciitilde" unicode="~" horiz-adv-x="1044" 
d="M53 864q7 81 17.5 146.5t33 134t54.5 114.5t83 75.5t117 29.5q54 0 95 -20t65.5 -52t42 -71t30 -77.5t24.5 -70.5t30 -52t43 -20q99 0 127 365l176 -20q-7 -83 -17 -148t-32.5 -134t-53.5 -115t-82.5 -75.5t-117.5 -29.5q-54 0 -95 20t-65.5 51.5t-42 70t-30 77t-24.5 70
t-30 51.5t-43 20q-98 0 -127 -360z" />
    <glyph glyph-name="uni00A0" unicode="&#xa0;" horiz-adv-x="526" 
 />
    <glyph glyph-name="exclamdown" unicode="&#xa1;" horiz-adv-x="522" 
d="M94 848q0 66 49.5 115t116.5 49t115.5 -49t48.5 -115q0 -68 -48.5 -117t-115.5 -49q-68 0 -117 49t-49 117zM104 -377l41 920h230l43 -920h-314z" />
    <glyph glyph-name="cent" unicode="&#xa2;" horiz-adv-x="1021" 
d="M66 496q0 201 118.5 340t309.5 170v151h188v-149q197 -31 299 -172l-170 -160q-51 72 -129 96v-555q76 23 129 98l170 -159q-46 -64 -121.5 -111t-177.5 -61v-189h-188v189q-191 31 -309.5 170.5t-118.5 341.5zM334 496q0 -96 43 -167t117 -102v535q-75 -31 -117.5 -101
t-42.5 -165z" />
    <glyph glyph-name="sterling" unicode="&#xa3;" horiz-adv-x="1126" 
d="M47 551v166h139q-94 129 -94 246q0 94 43.5 175t114.5 134.5t160 83.5t180 30q349 0 475 -247l-231 -135q-25 65 -82 105t-127 40q-92 0 -153.5 -53t-61.5 -138q0 -30 4.5 -55.5t18.5 -55t20 -41t30 -48t27 -41.5h295v-166h-230q0 -6 1.5 -19.5t1.5 -19.5
q0 -69 -38 -130.5t-96 -96.5q50 16 101 16q62 0 140 -34t126 -34q61 0 107 21.5t69 52.5l117 -231q-103 -103 -303 -103q-76 0 -142 22.5t-122 45t-107 22.5q-97 0 -237 -77l-99 198q102 48 162.5 114.5t60.5 141.5q0 51 -24 111h-246z" />
    <glyph glyph-name="currency" unicode="&#xa4;" horiz-adv-x="1069" 
d="M74 281l114 114q-102 127 -102 287q0 163 102 287l-114 116l57 58l117 -115q120 102 287 102q162 0 286 -102l115 115l59 -58l-114 -116q102 -124 102 -287q0 -160 -102 -287l114 -114l-59 -60l-115 117q-124 -105 -286 -105q-163 0 -287 105l-117 -117zM184 682
q0 -145 103 -247.5t248 -102.5t247.5 102.5t102.5 247.5q0 146 -102.5 248t-247.5 102t-248 -102t-103 -248z" />
    <glyph glyph-name="yen" unicode="&#xa5;" horiz-adv-x="1320" 
d="M-8 1366h332l338 -547l337 547h330l-418 -645h365v-162h-469v-164h469v-159h-469v-236h-291v236h-467v159h467v164h-467v162h361z" />
    <glyph glyph-name="brokenbar" unicode="&#xa6;" horiz-adv-x="442" 
d="M135 -41v647h174v-647h-174zM135 760v647h174v-647h-174z" />
    <glyph glyph-name="section" unicode="&#xa7;" horiz-adv-x="991" 
d="M47 -4l109 164q61 -59 148.5 -101.5t180.5 -42.5q82 0 130.5 30t48.5 87q0 39 -32.5 65.5t-84 41.5t-114 29t-125 35t-114 52t-84 87.5t-32.5 134.5q0 95 59 160.5t139 92.5q-198 75 -198 261q0 126 112.5 210t290.5 84q259 0 398 -139l-103 -153q-52 52 -128 81t-154 29
q-77 0 -121.5 -28.5t-44.5 -79.5q0 -35 32.5 -58.5t84 -36.5t114.5 -25.5t125.5 -33t114 -51.5t84 -88t32.5 -135q0 -84 -44.5 -152.5t-127.5 -109.5q172 -75 172 -250q0 -150 -119.5 -236t-310.5 -86q-261 0 -438 162zM328 616q0 -28 13 -51t30.5 -37t49 -26.5t56 -19.5
t62.5 -15q61 27 89.5 62.5t28.5 88.5q0 110 -170 148q-88 -21 -123.5 -58t-35.5 -92z" />
    <glyph glyph-name="dieresis" unicode="&#xa8;" horiz-adv-x="604" 
d="M-53 1251q0 59 40.5 99.5t98.5 40.5t98.5 -40.5t40.5 -99.5t-40.5 -99t-98.5 -40t-98.5 40t-40.5 99zM379 1251q0 58 41 99t98 41q58 0 98.5 -40.5t40.5 -99.5t-40.5 -99t-98.5 -40q-57 0 -98 40.5t-41 98.5z" />
    <glyph glyph-name="copyright" unicode="&#xa9;" horiz-adv-x="1593" 
d="M90 684q0 192 95 355t258 257.5t354 94.5q144 0 275 -56t225 -150.5t150 -225.5t56 -275q0 -143 -56 -274t-150 -226t-225 -151t-275 -56q-191 0 -354 95t-258 258t-95 354zM164 684q0 -170 85.5 -316t231.5 -231.5t316 -85.5q171 0 317 85.5t231 231.5t85 316
q0 128 -50.5 245.5t-135 202t-202 135t-245.5 50.5q-170 0 -316 -85t-231.5 -231t-85.5 -317zM381 686q0 185 123.5 307.5t302.5 122.5q187 0 303 -135l-63 -63q-40 54 -104 85t-136 31q-138 0 -235 -98t-97 -250q0 -150 97.5 -251t234.5 -101q72 0 137 33t105 88l63 -64
q-120 -139 -305 -139q-179 0 -302.5 124t-123.5 310z" />
    <glyph glyph-name="ordfeminine" unicode="&#xaa;" horiz-adv-x="788" 
d="M63 864q0 100 67.5 153.5t158.5 53.5q137 0 209 -76v80q0 51 -39 81t-103 30q-49 0 -99 -22t-89 -62l-72 123q119 102 293 102q61 0 111.5 -12.5t93.5 -40.5t67.5 -79.5t24.5 -123.5v-403h-188v65q-74 -82 -209 -82q-90 0 -158 56t-68 157zM250 864q0 -45 34 -69.5
t83 -24.5q40 0 75.5 15t55.5 42v74q-20 26 -56 40.5t-75 14.5q-48 0 -82.5 -25t-34.5 -67z" />
    <glyph glyph-name="guillemotleft" unicode="&#xab;" horiz-adv-x="1079" 
d="M61 498l328 362h242l-328 -362l328 -369h-242zM451 498l327 362h240l-328 -362l328 -369h-240z" />
    <glyph glyph-name="logicalnot" unicode="&#xac;" horiz-adv-x="1054" 
d="M59 797v161h914v-546h-166v385h-748z" />
    <glyph glyph-name="uni00AD" unicode="&#xad;" horiz-adv-x="614" 
d="M61 385v221h492v-221h-492z" />
    <glyph glyph-name="registered" unicode="&#xae;" horiz-adv-x="1011" 
d="M72 952q0 181 127 307.5t307 126.5q119 0 219 -57.5t157.5 -157.5t57.5 -219q0 -180 -126.5 -307t-307.5 -127q-180 0 -307 127t-127 307zM137 952q0 -152 107.5 -260t261.5 -108q153 0 260.5 107.5t107.5 260.5q0 155 -107 262t-261 107t-261.5 -107t-107.5 -262z
M340 702v498h203q66 0 114 -42t48 -109q0 -72 -46 -110t-81 -38l133 -199h-86l-129 197h-86v-197h-70zM410 963h133q34 0 62 24.5t28 61.5q0 39 -28 64.5t-62 25.5h-133v-176z" />
    <glyph glyph-name="degree" unicode="&#xb0;" horiz-adv-x="636" 
d="M41 1108q0 116 80.5 197t195.5 81q116 0 197.5 -81.5t81.5 -196.5q0 -114 -81.5 -194t-197.5 -80q-115 0 -195.5 80t-80.5 194zM184 1108q0 -56 39 -94.5t94 -38.5q56 0 97 39t41 94q0 57 -41 97t-97 40q-55 0 -94 -40t-39 -97z" />
    <glyph glyph-name="plusminus" unicode="&#xb1;" horiz-adv-x="1032" 
d="M59 0v162h914v-162h-914zM59 668v161h369v402h178v-402h367v-161h-367v-416h-178v416h-369z" />
    <glyph glyph-name="uni00B2" unicode="&#xb2;" horiz-adv-x="815" 
d="M72 1559q61 68 149 101.5t180 33.5q146 0 238 -67t92 -187q0 -98 -82.5 -193t-269.5 -227h360v-158h-645v144q270 189 356.5 269.5t86.5 147.5q0 55 -39 84t-101 29q-66 0 -127.5 -30t-95.5 -70z" />
    <glyph glyph-name="uni00B3" unicode="&#xb3;" horiz-adv-x="815" 
d="M66 977l98 129q43 -48 107.5 -74t125.5 -26q72 0 111 26t39 70q0 56 -47 78t-133 22q-79 0 -91 -2v156q16 -2 89 -2q85 0 127.5 21.5t42.5 70.5q0 44 -42 67t-108 23q-129 0 -217 -88l-92 115q121 131 330 131q153 0 238 -61t85 -163q0 -72 -53 -122.5t-129 -63.5
q74 -5 135 -57t61 -137q0 -107 -93 -174.5t-247 -67.5q-114 0 -200.5 35t-136.5 94z" />
    <glyph glyph-name="acute" unicode="&#xb4;" horiz-adv-x="514" 
d="M0 1139l274 295h240l-332 -295h-182z" />
    <glyph glyph-name="paragraph" unicode="&#xb6;" horiz-adv-x="919" 
d="M55 1014q0 146 103.5 249t249.5 103h417v-1571h-129v1444h-159v-1444h-129v867q-146 0 -249.5 103t-103.5 249z" />
    <glyph glyph-name="cedilla" unicode="&#xb8;" horiz-adv-x="452" 
d="M0 -336l51 105q78 -60 168 -60q43 0 74 18t31 50q0 53 -60 53q-36 0 -65 -29l-95 54l62 168h129l-51 -127q29 20 71 20q58 0 98 -40t40 -103q0 -79 -65.5 -125.5t-162.5 -46.5q-71 0 -131 17.5t-94 45.5z" />
    <glyph glyph-name="uni00B9" unicode="&#xb9;" horiz-adv-x="585" 
d="M14 1407l279 274h170v-819h-199v568l-137 -142z" />
    <glyph glyph-name="ordmasculine" unicode="&#xba;" horiz-adv-x="829" 
d="M61 989q0 141 97.5 239.5t255.5 98.5q161 0 257.5 -98t96.5 -240t-96.5 -240t-257.5 -98q-158 0 -255.5 98.5t-97.5 239.5zM256 989q0 -85 42.5 -135.5t115.5 -50.5q75 0 118 50.5t43 135.5t-43 133.5t-118 48.5q-74 0 -116 -48.5t-42 -133.5z" />
    <glyph glyph-name="guillemotright" unicode="&#xbb;" horiz-adv-x="1079" 
d="M61 129l328 369l-328 362h242l328 -362l-328 -369h-242zM451 129l327 369l-327 362h239l328 -362l-328 -369h-239z" />
    <glyph glyph-name="onequarter" unicode="&#xbc;" horiz-adv-x="1705" 
d="M14 1092l279 274h170v-819h-199v567l-137 -141zM283 0l872 1366h158l-875 -1366h-155zM952 176v133l324 510h274v-489h107v-154h-107v-176h-196v176h-402zM1147 330h207v323z" />
    <glyph glyph-name="onehalf" unicode="&#xbd;" horiz-adv-x="1775" 
d="M14 1092l279 274h170v-819h-199v567l-137 -141zM283 0l872 1366h158l-875 -1366h-155zM1032 696q61 68 149.5 101.5t180.5 33.5q146 0 238 -66.5t92 -186.5q0 -98 -83 -193t-270 -227h361v-158h-645v143q268 188 355 269.5t87 148.5q0 55 -39 84t-100 29
q-66 0 -127.5 -30.5t-95.5 -70.5z" />
    <glyph glyph-name="threequarters" unicode="&#xbe;" horiz-adv-x="1886" 
d="M66 662l98 129q44 -49 108 -75t125 -26q72 0 111 26t39 70q0 56 -47 78.5t-133 22.5q-79 0 -91 -2v155q16 -2 89 -2q85 0 127.5 21.5t42.5 70.5q0 44 -42 67.5t-108 23.5q-129 0 -217 -88l-92 114q121 131 330 131q153 0 238 -60.5t85 -162.5q0 -72 -53 -122.5
t-129 -63.5q73 -5 134.5 -57.5t61.5 -137.5q0 -107 -93 -174.5t-247 -67.5q-113 0 -200 35.5t-137 94.5zM463 0l872 1366h158l-875 -1366h-155zM1130 176v133l324 510h275v-489h106v-154h-106v-176h-197v176h-402zM1325 330h207v323z" />
    <glyph glyph-name="questiondown" unicode="&#xbf;" horiz-adv-x="815" 
d="M41 -76q0 61 19 112t49 87t66.5 66.5t73 56.5t66.5 51t49 55.5t19 65.5q0 55 -39 86l225 65q68 -74 68 -182q0 -67 -31 -121t-75.5 -89t-88.5 -65t-75 -64.5t-31 -72.5q0 -51 41 -83.5t121 -32.5q149 0 252 127l165 -187q-81 -96 -198 -147t-250 -51q-196 0 -311 89.5
t-115 233.5zM305 846q0 68 49.5 117t116.5 49t116.5 -49t49.5 -117t-49.5 -117t-116.5 -49t-116.5 49t-49.5 117z" />
    <glyph glyph-name="Agrave" unicode="&#xc0;" 
d="M-8 0l526 1366h365l526 -1366h-330l-86 231h-585l-86 -231h-330zM356 1786h240l274 -295h-182zM487 487h426l-213 588z" />
    <glyph glyph-name="Aacute" unicode="&#xc1;" 
d="M-8 0l526 1366h365l526 -1366h-330l-86 231h-585l-86 -231h-330zM487 487h426l-213 588zM535 1491l274 295h240l-332 -295h-182z" />
    <glyph glyph-name="Acircumflex" unicode="&#xc2;" 
d="M-8 0l526 1366h365l526 -1366h-330l-86 231h-585l-86 -231h-330zM397 1491l189 295h233l193 -295h-160l-150 182l-145 -182h-160zM487 487h426l-213 588z" />
    <glyph glyph-name="Atilde" unicode="&#xc3;" 
d="M-8 0l526 1366h365l526 -1366h-330l-86 231h-585l-86 -231h-330zM367 1499q0 131 57 203t164 72q38 0 69 -14t51.5 -34.5t38 -41t37.5 -34.5t41 -14q33 0 53.5 31.5t20.5 93.5h137q0 -131 -56 -202.5t-163 -71.5q-39 0 -70.5 14.5t-52 35t-38 40.5t-37.5 34.5t-41 14.5
q-33 0 -53.5 -32t-20.5 -95h-137zM487 487h426l-213 588z" />
    <glyph glyph-name="Adieresis" unicode="&#xc4;" 
d="M-8 0l526 1366h365l526 -1366h-330l-86 231h-585l-86 -231h-330zM346 1606q0 58 40 98.5t99 40.5t99.5 -40.5t40.5 -98.5t-40.5 -99t-99.5 -41q-58 0 -98.5 40.5t-40.5 99.5zM487 487h426l-213 588zM778 1606q0 58 41.5 98.5t98.5 40.5q58 0 98.5 -40.5t40.5 -98.5
q0 -59 -40.5 -99.5t-98.5 -40.5q-57 0 -98.5 41t-41.5 99z" />
    <glyph glyph-name="Aring" unicode="&#xc5;" 
d="M-8 0l526 1366h365l526 -1366h-330l-86 231h-585l-86 -231h-330zM487 487h426l-213 588zM487 1634q0 89 63.5 152t151.5 63q89 0 151 -63t62 -152q0 -88 -62 -151.5t-151 -63.5q-88 0 -151.5 63.5t-63.5 151.5zM606 1634q0 -39 28.5 -67.5t67.5 -28.5q40 0 67.5 28
t27.5 68t-27.5 68.5t-67.5 28.5q-38 0 -67 -28.5t-29 -68.5z" />
    <glyph glyph-name="AE" unicode="&#xc6;" horiz-adv-x="1982" 
d="M-18 0l831 1366h1083v-256h-673v-287h659v-256h-659v-311h673v-256h-966v231h-479l-136 -231h-333zM588 487h342v588z" />
    <glyph glyph-name="Ccedilla" unicode="&#xc7;" horiz-adv-x="1406" 
d="M70 682q0 207 96 369t262 250t371 88q108 0 200.5 -27.5t161 -76t119 -105t88.5 -125.5l-250 -123q-44 86 -131 142t-188 56q-187 0 -308.5 -127t-121.5 -321t121.5 -321.5t308.5 -127.5q101 0 188 56.5t131 142.5l250 -121q-37 -66 -84.5 -120.5t-112.5 -102.5
t-151 -77.5t-186 -33.5l-29 -73q29 20 72 20q58 0 97.5 -40t39.5 -103q0 -79 -65.5 -125.5t-162.5 -46.5q-71 0 -131 17.5t-94 45.5l51 105q78 -60 168 -60q43 0 74 18t31 50q0 53 -60 53q-37 0 -65 -28l-94 53l43 119q-137 14 -254.5 71t-202.5 147t-133.5 214.5
t-48.5 267.5z" />
    <glyph glyph-name="Egrave" unicode="&#xc8;" horiz-adv-x="1193" 
d="M135 0v1366h967v-256h-676v-287h661v-256h-661v-311h676v-256h-967zM274 1786h240l274 -295h-182z" />
    <glyph glyph-name="Eacute" unicode="&#xc9;" horiz-adv-x="1193" 
d="M135 0v1366h967v-256h-676v-287h661v-256h-661v-311h676v-256h-967zM451 1491l274 295h240l-332 -295h-182z" />
    <glyph glyph-name="Ecircumflex" unicode="&#xca;" horiz-adv-x="1193" 
d="M135 0v1366h967v-256h-676v-287h661v-256h-661v-311h676v-256h-967zM311 1491l189 295h233l193 -295h-160l-150 182l-145 -182h-160z" />
    <glyph glyph-name="Edieresis" unicode="&#xcb;" horiz-adv-x="1193" 
d="M135 0v1366h967v-256h-676v-287h661v-256h-661v-311h676v-256h-967zM266 1606q0 58 40.5 98.5t99.5 40.5q58 0 98.5 -40.5t40.5 -98.5q0 -59 -40.5 -99.5t-98.5 -40.5t-99 41t-41 99zM698 1606q0 58 41.5 98.5t98.5 40.5q58 0 98.5 -40.5t40.5 -98.5q0 -59 -40.5 -99.5
t-98.5 -40.5q-57 0 -98.5 41t-41.5 99z" />
    <glyph glyph-name="Igrave" unicode="&#xcc;" horiz-adv-x="561" 
d="M-66 1786h240l275 -295h-183zM135 0v1366h291v-1366h-291z" />
    <glyph glyph-name="Iacute" unicode="&#xcd;" horiz-adv-x="561" 
d="M119 1491l274 295h240l-332 -295h-182zM135 0v1366h291v-1366h-291z" />
    <glyph glyph-name="Icircumflex" unicode="&#xce;" horiz-adv-x="561" 
d="M-27 1491l189 295h233l193 -295h-160l-149 182l-146 -182h-160zM135 0v1366h291v-1366h-291z" />
    <glyph glyph-name="Idieresis" unicode="&#xcf;" horiz-adv-x="561" 
d="M-74 1606q0 58 40.5 98.5t99.5 40.5q58 0 98.5 -40.5t40.5 -98.5q0 -59 -40.5 -99.5t-98.5 -40.5t-99 41t-41 99zM135 0v1366h291v-1366h-291zM358 1606q0 58 41.5 98.5t98.5 40.5q58 0 98.5 -40.5t40.5 -98.5q0 -59 -40.5 -99.5t-98.5 -40.5q-57 0 -98.5 41t-41.5 99z
" />
    <glyph glyph-name="Eth" unicode="&#xd0;" horiz-adv-x="1519" 
d="M18 567v217h168v582h539q322 0 523.5 -188t201.5 -494q0 -204 -91.5 -360t-255.5 -240t-376 -84h-541v567h-168zM477 256h248q131 0 230 59t148.5 155t49.5 214q0 187 -112 306.5t-314 119.5h-250v-326h307v-217h-307v-311z" />
    <glyph glyph-name="Ntilde" unicode="&#xd1;" horiz-adv-x="1492" 
d="M135 0v1366h299l633 -858v858h291v-1366h-281l-651 891v-891h-291zM410 1499q0 131 57 203t164 72q38 0 69 -14t51.5 -34.5t38 -41t37.5 -34.5t41 -14q33 0 53.5 31.5t20.5 93.5h137q0 -131 -56 -202.5t-163 -71.5q-39 0 -70.5 14.5t-52 35t-38 40.5t-37.5 34.5t-41 14.5
q-33 0 -53.5 -32t-20.5 -95h-137z" />
    <glyph glyph-name="Ograve" unicode="&#xd2;" horiz-adv-x="1566" 
d="M70 682q0 152 53.5 284t147.5 224.5t227 145.5t286 53q204 0 366.5 -90t254.5 -252t92 -365t-92 -365t-254.5 -252t-366.5 -90q-153 0 -286 53t-227 145.5t-147.5 224.5t-53.5 284zM369 682q0 -194 114 -321.5t301 -127.5q186 0 300 127.5t114 321.5q0 195 -114 321.5
t-300 126.5q-188 0 -301.5 -126.5t-113.5 -321.5zM444 1786h240l274 -295h-182z" />
    <glyph glyph-name="Oacute" unicode="&#xd3;" horiz-adv-x="1566" 
d="M70 682q0 152 53.5 284t147.5 224.5t227 145.5t286 53q204 0 366.5 -90t254.5 -252t92 -365t-92 -365t-254.5 -252t-366.5 -90q-153 0 -286 53t-227 145.5t-147.5 224.5t-53.5 284zM369 682q0 -194 114 -321.5t301 -127.5q186 0 300 127.5t114 321.5q0 195 -114 321.5
t-300 126.5q-188 0 -301.5 -126.5t-113.5 -321.5zM618 1491l275 295h240l-332 -295h-183z" />
    <glyph glyph-name="Ocircumflex" unicode="&#xd4;" horiz-adv-x="1566" 
d="M70 682q0 152 53.5 284t147.5 224.5t227 145.5t286 53q204 0 366.5 -90t254.5 -252t92 -365t-92 -365t-254.5 -252t-366.5 -90q-153 0 -286 53t-227 145.5t-147.5 224.5t-53.5 284zM369 682q0 -194 114 -321.5t301 -127.5q186 0 300 127.5t114 321.5q0 195 -114 321.5
t-300 126.5q-188 0 -301.5 -126.5t-113.5 -321.5zM481 1491l189 295h233l193 -295h-160l-150 182l-145 -182h-160z" />
    <glyph glyph-name="Otilde" unicode="&#xd5;" horiz-adv-x="1566" 
d="M70 682q0 152 53.5 284t147.5 224.5t227 145.5t286 53q204 0 366.5 -90t254.5 -252t92 -365t-92 -365t-254.5 -252t-366.5 -90q-153 0 -286 53t-227 145.5t-147.5 224.5t-53.5 284zM369 682q0 -194 114 -321.5t301 -127.5q186 0 300 127.5t114 321.5q0 195 -114 321.5
t-300 126.5q-188 0 -301.5 -126.5t-113.5 -321.5zM451 1499q0 131 57 203t164 72q38 0 69 -14t51.5 -34.5t38 -41t37.5 -34.5t41 -14q33 0 53.5 31.5t20.5 93.5h137q0 -131 -56 -202.5t-163 -71.5q-39 0 -70.5 14.5t-52 35t-38 40.5t-37.5 34.5t-41 14.5q-33 0 -53.5 -32
t-20.5 -95h-137z" />
    <glyph glyph-name="Odieresis" unicode="&#xd6;" horiz-adv-x="1566" 
d="M70 682q0 152 53.5 284t147.5 224.5t227 145.5t286 53q204 0 366.5 -90t254.5 -252t92 -365t-92 -365t-254.5 -252t-366.5 -90q-153 0 -286 53t-227 145.5t-147.5 224.5t-53.5 284zM369 682q0 -194 114 -321.5t301 -127.5q186 0 300 127.5t114 321.5q0 195 -114 321.5
t-300 126.5q-188 0 -301.5 -126.5t-113.5 -321.5zM430 1606q0 58 40 98.5t99 40.5t99.5 -40.5t40.5 -98.5t-40.5 -99t-99.5 -41q-58 0 -98.5 40.5t-40.5 99.5zM862 1606q0 58 41 98.5t98 40.5q59 0 99.5 -40.5t40.5 -98.5t-40.5 -99t-99.5 -41q-57 0 -98 41t-41 99z" />
    <glyph glyph-name="multiply" unicode="&#xd7;" horiz-adv-x="1032" 
d="M113 395l290 289l-290 289l116 114l287 -290l291 290l113 -114l-289 -289l289 -289l-113 -114l-291 290l-287 -290z" />
    <glyph glyph-name="Oslash" unicode="&#xd8;" horiz-adv-x="1566" 
d="M70 682q0 152 53.5 284t147.5 224.5t227 145.5t286 53q191 0 353 -84l47 61h209l-119 -156q106 -97 164.5 -232.5t58.5 -295.5q0 -203 -92 -365t-254.5 -252t-366.5 -90q-210 0 -378 97l-54 -72h-211l131 172q-97 95 -149.5 226t-52.5 284zM369 682q0 -164 80 -279
l522 684q-84 43 -187 43q-188 0 -301.5 -126.5t-113.5 -321.5zM571 289q94 -56 213 -56q186 0 300 127.5t114 321.5q0 178 -96 301z" />
    <glyph glyph-name="Ugrave" unicode="&#xd9;" horiz-adv-x="1503" 
d="M135 547v819h295v-811q0 -146 83.5 -234t238.5 -88q154 0 236.5 87.5t82.5 234.5v811h297v-819q0 -128 -38.5 -232t-113 -180.5t-193 -118t-271.5 -41.5q-303 0 -460 155t-157 417zM412 1786h239l275 -295h-183z" />
    <glyph glyph-name="Uacute" unicode="&#xda;" horiz-adv-x="1503" 
d="M135 547v819h295v-811q0 -146 83.5 -234t238.5 -88q154 0 236.5 87.5t82.5 234.5v811h297v-819q0 -128 -38.5 -232t-113 -180.5t-193 -118t-271.5 -41.5q-303 0 -460 155t-157 417zM588 1491l274 295h240l-332 -295h-182z" />
    <glyph glyph-name="Ucircumflex" unicode="&#xdb;" horiz-adv-x="1503" 
d="M135 547v819h295v-811q0 -146 83.5 -234t238.5 -88q154 0 236.5 87.5t82.5 234.5v811h297v-819q0 -128 -38.5 -232t-113 -180.5t-193 -118t-271.5 -41.5q-303 0 -460 155t-157 417zM457 1491l188 295h234l192 -295h-160l-149 182l-146 -182h-159z" />
    <glyph glyph-name="Udieresis" unicode="&#xdc;" horiz-adv-x="1503" 
d="M135 547v819h295v-811q0 -146 83.5 -234t238.5 -88q154 0 236.5 87.5t82.5 234.5v811h297v-819q0 -128 -38.5 -232t-113 -180.5t-193 -118t-271.5 -41.5q-303 0 -460 155t-157 417zM401 1606q0 58 40.5 98.5t99.5 40.5t99 -40.5t40 -98.5q0 -59 -40.5 -99.5t-98.5 -40.5
q-59 0 -99.5 41t-40.5 99zM834 1606q0 58 41 98.5t98 40.5q59 0 99 -40.5t40 -98.5q0 -59 -40.5 -99.5t-98.5 -40.5q-57 0 -98 41t-41 99z" />
    <glyph glyph-name="Yacute" unicode="&#xdd;" horiz-adv-x="1320" 
d="M-8 1366h332l338 -547l337 547h330l-522 -807v-559h-291v559zM500 1491l274 295h240l-332 -295h-182z" />
    <glyph glyph-name="Thorn" unicode="&#xde;" horiz-adv-x="1280" 
d="M135 0v1366h291v-221h348q144 0 250 -61.5t157.5 -160.5t51.5 -221q0 -121 -52 -218.5t-158 -157.5t-249 -60h-348v-266h-291zM426 522h307q88 0 145.5 50t57.5 133t-57.5 134.5t-145.5 51.5h-307v-369z" />
    <glyph glyph-name="germandbls" unicode="&#xdf;" horiz-adv-x="1316" 
d="M129 0v973q0 175 126.5 294t342.5 119q110 0 205.5 -35t156 -103t60.5 -156q0 -54 -20 -99.5t-50 -74t-65 -56t-65 -47.5t-50 -46t-20 -54q0 -25 23 -42.5t60.5 -27t85.5 -21t98 -23t98 -35.5t85.5 -56t60.5 -87t23 -126q0 -142 -112 -232t-300 -90q-137 0 -227 41.5
t-174 120.5l109 180q43 -56 124 -94.5t168 -38.5q78 0 120 29.5t42 73.5q0 28 -23 48.5t-60.5 31.5t-85.5 24t-98 25t-98 35t-85.5 53.5t-60.5 82t-23 118.5q0 59 26 108.5t63 81t74 57.5t63 51.5t26 49.5q0 49 -46.5 75.5t-111.5 26.5q-89 0 -146 -49t-57 -133v-973h-262z
" />
    <glyph glyph-name="agrave" unicode="&#xe0;" horiz-adv-x="1112" 
d="M68 303q0 67 20.5 122.5t54 91.5t79 60.5t92.5 35t96 10.5q100 0 182 -31.5t131 -89.5v125q0 75 -59.5 120.5t-157.5 45.5q-159 0 -285 -117l-102 182q173 156 432 156q90 0 164.5 -19t137 -61t97.5 -117t35 -178v-639h-262v104q-51 -61 -133.5 -95t-179.5 -34
q-61 0 -120.5 21t-109.5 60t-81 103.5t-31 143.5zM207 1434h239l275 -295h-182zM328 299q0 -68 53 -107.5t133 -39.5q65 0 121.5 22t87.5 64v122q-32 42 -88.5 65.5t-120.5 23.5q-79 0 -132.5 -41t-53.5 -109z" />
    <glyph glyph-name="aacute" unicode="&#xe1;" horiz-adv-x="1112" 
d="M68 303q0 67 20.5 122.5t54 91.5t79 60.5t92.5 35t96 10.5q100 0 182 -31.5t131 -89.5v125q0 75 -59.5 120.5t-157.5 45.5q-159 0 -285 -117l-102 182q173 156 432 156q90 0 164.5 -19t137 -61t97.5 -117t35 -178v-639h-262v104q-51 -61 -133.5 -95t-179.5 -34
q-61 0 -120.5 21t-109.5 60t-81 103.5t-31 143.5zM328 299q0 -68 53 -107.5t133 -39.5q65 0 121.5 22t87.5 64v122q-32 42 -88.5 65.5t-120.5 23.5q-79 0 -132.5 -41t-53.5 -109zM393 1139l275 295h239l-332 -295h-182z" />
    <glyph glyph-name="acircumflex" unicode="&#xe2;" horiz-adv-x="1112" 
d="M68 303q0 67 20.5 122.5t54 91.5t79 60.5t92.5 35t96 10.5q100 0 182 -31.5t131 -89.5v125q0 75 -59.5 120.5t-157.5 45.5q-159 0 -285 -117l-102 182q173 156 432 156q90 0 164.5 -19t137 -61t97.5 -117t35 -178v-639h-262v104q-51 -61 -133.5 -95t-179.5 -34
q-61 0 -120.5 21t-109.5 60t-81 103.5t-31 143.5zM252 1139l188 295h234l192 -295h-159l-150 182l-145 -182h-160zM328 299q0 -68 53 -107.5t133 -39.5q65 0 121.5 22t87.5 64v122q-32 42 -88.5 65.5t-120.5 23.5q-79 0 -132.5 -41t-53.5 -109z" />
    <glyph glyph-name="atilde" unicode="&#xe3;" horiz-adv-x="1112" 
d="M68 303q0 67 20.5 122.5t54 91.5t79 60.5t92.5 35t96 10.5q100 0 182 -31.5t131 -89.5v125q0 75 -59.5 120.5t-157.5 45.5q-159 0 -285 -117l-102 182q173 156 432 156q90 0 164.5 -19t137 -61t97.5 -117t35 -178v-639h-262v104q-51 -61 -133.5 -95t-179.5 -34
q-61 0 -120.5 21t-109.5 60t-81 103.5t-31 143.5zM219 1147q0 131 57 202.5t164 71.5q38 0 69.5 -14t52 -34.5t38 -40.5t37.5 -34t41 -14q33 0 53.5 31.5t20.5 93.5h137q0 -131 -56 -202.5t-163 -71.5q-39 0 -70.5 14.5t-52 35t-38.5 40.5t-38 34.5t-41 14.5
q-33 0 -53.5 -32t-20.5 -95h-137zM328 299q0 -68 53 -107.5t133 -39.5q65 0 121.5 22t87.5 64v122q-32 42 -88.5 65.5t-120.5 23.5q-79 0 -132.5 -41t-53.5 -109z" />
    <glyph glyph-name="adieresis" unicode="&#xe4;" horiz-adv-x="1112" 
d="M68 303q0 67 20.5 122.5t54 91.5t79 60.5t92.5 35t96 10.5q100 0 182 -31.5t131 -89.5v125q0 75 -59.5 120.5t-157.5 45.5q-159 0 -285 -117l-102 182q173 156 432 156q90 0 164.5 -19t137 -61t97.5 -117t35 -178v-639h-262v104q-51 -61 -133.5 -95t-179.5 -34
q-61 0 -120.5 21t-109.5 60t-81 103.5t-31 143.5zM195 1251q0 59 40.5 99.5t98.5 40.5t98.5 -40.5t40.5 -99.5t-40.5 -99t-98.5 -40t-98.5 40t-40.5 99zM328 299q0 -68 53 -107.5t133 -39.5q65 0 121.5 22t87.5 64v122q-32 42 -88.5 65.5t-120.5 23.5q-79 0 -132.5 -41
t-53.5 -109zM627 1251q0 58 41 99t98 41q58 0 98.5 -40.5t40.5 -99.5t-40.5 -99t-98.5 -40q-57 0 -98 40.5t-41 98.5z" />
    <glyph glyph-name="aring" unicode="&#xe5;" horiz-adv-x="1112" 
d="M68 303q0 67 20.5 122.5t54 91.5t79 60.5t92.5 35t96 10.5q100 0 182 -31.5t131 -89.5v125q0 75 -59.5 120.5t-157.5 45.5q-159 0 -285 -117l-102 182q173 156 432 156q90 0 164.5 -19t137 -61t97.5 -117t35 -178v-639h-262v104q-51 -61 -133.5 -95t-179.5 -34
q-61 0 -120.5 21t-109.5 60t-81 103.5t-31 143.5zM328 299q0 -68 53 -107.5t133 -39.5q65 0 121.5 22t87.5 64v122q-32 42 -88.5 65.5t-120.5 23.5q-79 0 -132.5 -41t-53.5 -109zM340 1323q0 89 63.5 152t151.5 63q89 0 151 -63t62 -152q0 -88 -62 -151.5t-151 -63.5
q-88 0 -151.5 63.5t-63.5 151.5zM459 1323q0 -39 28.5 -67.5t67.5 -28.5q40 0 67 28t27 68t-27 68t-67 28q-39 0 -67.5 -28.5t-28.5 -67.5z" />
    <glyph glyph-name="ae" unicode="&#xe6;" horiz-adv-x="1781" 
d="M68 299q0 79 28 142t76.5 102t109 59.5t128.5 20.5q97 0 179 -30.5t134 -88.5v123q0 75 -59.5 120.5t-157.5 45.5q-162 0 -285 -117l-102 182q173 156 432 156q254 0 336 -162q60 77 144 119.5t210 42.5q213 0 347 -151t134 -392v-61h-735q14 -95 89 -156t196 -61
q66 0 141 27t121 71l117 -178q-72 -66 -181 -102t-227 -36q-126 0 -232.5 48.5t-174.5 132.5q-67 -79 -172.5 -130t-233.5 -51q-68 0 -131.5 20.5t-116 59t-83.5 102t-31 142.5zM328 299q0 -68 53 -107.5t133 -39.5q71 0 133 27t96 87q-20 36 -20 92q-32 42 -88.5 66.5
t-120.5 24.5q-79 0 -132.5 -41.5t-53.5 -108.5zM985 590h488q-2 37 -17 73t-43 67.5t-76.5 51t-109.5 19.5q-111 0 -172 -63.5t-70 -147.5z" />
    <glyph glyph-name="ccedilla" unicode="&#xe7;" horiz-adv-x="1021" 
d="M66 496q0 227 148 372.5t376 145.5q260 0 391 -178l-170 -160q-71 106 -209 106q-119 0 -193.5 -79t-74.5 -207q0 -129 74.5 -209t193.5 -80q134 0 209 108l170 -159q-114 -158 -336 -179l-31 -77q29 20 72 20q58 0 97.5 -40t39.5 -103q0 -79 -65 -125.5t-162 -46.5
q-71 0 -131 17.5t-94 45.5l51 105q78 -60 168 -60q43 0 73.5 18t30.5 50q0 53 -59 53q-37 0 -66 -29l-94 54l43 121q-201 23 -326.5 165t-125.5 351z" />
    <glyph glyph-name="egrave" unicode="&#xe8;" horiz-adv-x="1132" 
d="M66 496q0 143 65 261t183 187.5t264 69.5q222 0 358.5 -150.5t136.5 -392.5v-61h-735q14 -96 89 -159t196 -63q66 0 141.5 26.5t120.5 70.5l116 -172q-72 -66 -180.5 -102t-226.5 -36q-229 0 -378.5 143.5t-149.5 377.5zM233 1434h240l275 -295h-183zM336 590h487
q-3 38 -18 73t-42.5 67t-75.5 51.5t-109 19.5q-58 0 -104 -19t-74 -50.5t-44 -67t-20 -74.5z" />
    <glyph glyph-name="eacute" unicode="&#xe9;" horiz-adv-x="1132" 
d="M66 496q0 143 65 261t183 187.5t264 69.5q222 0 358.5 -150.5t136.5 -392.5v-61h-735q14 -96 89 -159t196 -63q66 0 141.5 26.5t120.5 70.5l116 -172q-72 -66 -180.5 -102t-226.5 -36q-229 0 -378.5 143.5t-149.5 377.5zM336 590h487q-3 38 -18 73t-42.5 67t-75.5 51.5
t-109 19.5q-58 0 -104 -19t-74 -50.5t-44 -67t-20 -74.5zM416 1139l274 295h240l-332 -295h-182z" />
    <glyph glyph-name="ecircumflex" unicode="&#xea;" horiz-adv-x="1132" 
d="M66 496q0 143 65 261t183 187.5t264 69.5q222 0 358.5 -150.5t136.5 -392.5v-61h-735q14 -96 89 -159t196 -63q66 0 141.5 26.5t120.5 70.5l116 -172q-72 -66 -180.5 -102t-226.5 -36q-229 0 -378.5 143.5t-149.5 377.5zM274 1139l189 295h233l193 -295h-160l-149 182
l-146 -182h-160zM336 590h487q-3 38 -18 73t-42.5 67t-75.5 51.5t-109 19.5q-58 0 -104 -19t-74 -50.5t-44 -67t-20 -74.5z" />
    <glyph glyph-name="edieresis" unicode="&#xeb;" horiz-adv-x="1132" 
d="M66 496q0 143 65 261t183 187.5t264 69.5q222 0 358.5 -150.5t136.5 -392.5v-61h-735q14 -96 89 -159t196 -63q66 0 141.5 26.5t120.5 70.5l116 -172q-72 -66 -180.5 -102t-226.5 -36q-229 0 -378.5 143.5t-149.5 377.5zM225 1251q0 59 40.5 99.5t99.5 40.5
q58 0 98.5 -40.5t40.5 -99.5t-40 -99t-99 -40t-99.5 40.5t-40.5 98.5zM336 590h487q-3 38 -18 73t-42.5 67t-75.5 51.5t-109 19.5q-58 0 -104 -19t-74 -50.5t-44 -67t-20 -74.5zM657 1251q0 58 41.5 99t98.5 41q58 0 98.5 -40.5t40.5 -99.5t-40 -99t-99 -40
q-57 0 -98.5 40.5t-41.5 98.5z" />
    <glyph glyph-name="igrave" unicode="&#xec;" horiz-adv-x="518" 
d="M-88 1434h240l274 -295h-182zM129 0v989h260v-989h-260z" />
    <glyph glyph-name="iacute" unicode="&#xed;" horiz-adv-x="518" 
d="M92 1139l275 295h239l-332 -295h-182zM129 0v989h260v-989h-260z" />
    <glyph glyph-name="icircumflex" unicode="&#xee;" horiz-adv-x="518" 
d="M-47 1139l188 295h234l192 -295h-159l-150 182l-145 -182h-160zM129 0v989h260v-989h-260z" />
    <glyph glyph-name="idieresis" unicode="&#xef;" horiz-adv-x="518" 
d="M-96 1251q0 59 40.5 99.5t98.5 40.5t98.5 -40.5t40.5 -99.5t-40 -99t-99 -40t-99 40t-40 99zM129 0v989h260v-989h-260zM336 1251q0 58 41 99t98 41q58 0 98.5 -40.5t40.5 -99.5t-40 -99t-99 -40q-57 0 -98 40.5t-41 98.5z" />
    <glyph glyph-name="eth" unicode="&#xf0;" horiz-adv-x="1177" 
d="M66 459q0 212 125 347.5t313 135.5q207 0 327 -188q-73 163 -321 340l-299 -133l-51 122l221 97q-25 16 -71 43.5t-56 33.5l141 209q137 -84 252 -170l211 93l53 -117l-151 -68q352 -313 352 -688q0 -243 -140.5 -392t-383.5 -149q-234 0 -378 135.5t-144 348.5zM336 459
q0 -107 67.5 -179.5t184.5 -72.5q119 0 186.5 72.5t67.5 179.5q0 108 -68 181t-186 73q-117 0 -184.5 -73t-67.5 -181z" />
    <glyph glyph-name="ntilde" unicode="&#xf1;" horiz-adv-x="1185" 
d="M143 0v989h260v-127q54 63 145 107.5t202 44.5q160 0 241.5 -83.5t81.5 -232.5v-698h-262v598q0 98 -47 141t-135 43q-71 0 -129.5 -33t-96.5 -81v-668h-260zM260 1147q0 131 57 202.5t164 71.5q38 0 69.5 -14t52 -34.5t38 -40.5t37.5 -34t41 -14q33 0 53.5 31.5
t20.5 93.5h137q0 -131 -56 -202.5t-163 -71.5q-39 0 -70.5 14.5t-52 35t-38.5 40.5t-38 34.5t-41 14.5q-33 0 -53.5 -32t-20.5 -95h-137z" />
    <glyph glyph-name="ograve" unicode="&#xf2;" horiz-adv-x="1177" 
d="M66 496q0 142 61.5 258.5t182 188t278.5 71.5q159 0 280 -71.5t182.5 -188t61.5 -258.5t-61.5 -259.5t-182.5 -189.5t-280 -72q-158 0 -278.5 72t-182 189.5t-61.5 259.5zM244 1434h239l275 -295h-183zM336 496q0 -122 67.5 -205.5t184.5 -83.5q118 0 186 83t68 206
q0 121 -68 203.5t-186 82.5q-117 0 -184.5 -82.5t-67.5 -203.5z" />
    <glyph glyph-name="oacute" unicode="&#xf3;" horiz-adv-x="1177" 
d="M66 496q0 142 61.5 258.5t182 188t278.5 71.5q159 0 280 -71.5t182.5 -188t61.5 -258.5t-61.5 -259.5t-182.5 -189.5t-280 -72q-158 0 -278.5 72t-182 189.5t-61.5 259.5zM336 496q0 -122 67.5 -205.5t184.5 -83.5q118 0 186 83t68 206q0 121 -68 203.5t-186 82.5
q-117 0 -184.5 -82.5t-67.5 -203.5zM422 1139l274 295h240l-332 -295h-182z" />
    <glyph glyph-name="ocircumflex" unicode="&#xf4;" horiz-adv-x="1177" 
d="M66 496q0 142 61.5 258.5t182 188t278.5 71.5q159 0 280 -71.5t182.5 -188t61.5 -258.5t-61.5 -259.5t-182.5 -189.5t-280 -72q-158 0 -278.5 72t-182 189.5t-61.5 259.5zM283 1139l188 295h234l192 -295h-160l-149 182l-146 -182h-159zM336 496q0 -122 67.5 -205.5
t184.5 -83.5q118 0 186 83t68 206q0 121 -68 203.5t-186 82.5q-117 0 -184.5 -82.5t-67.5 -203.5z" />
    <glyph glyph-name="otilde" unicode="&#xf5;" horiz-adv-x="1177" 
d="M66 496q0 142 61.5 258.5t182 188t278.5 71.5q159 0 280 -71.5t182.5 -188t61.5 -258.5t-61.5 -259.5t-182.5 -189.5t-280 -72q-158 0 -278.5 72t-182 189.5t-61.5 259.5zM254 1147q0 131 57 202.5t164 71.5q38 0 69.5 -14t52 -34.5t38 -40.5t37.5 -34t41 -14
q33 0 53 31.5t20 93.5h138q0 -131 -56 -202.5t-163 -71.5q-39 0 -70.5 14.5t-52 35t-38.5 40.5t-38 34.5t-41 14.5q-33 0 -53.5 -32t-20.5 -95h-137zM336 496q0 -122 67.5 -205.5t184.5 -83.5q118 0 186 83t68 206q0 121 -68 203.5t-186 82.5q-117 0 -184.5 -82.5
t-67.5 -203.5z" />
    <glyph glyph-name="odieresis" unicode="&#xf6;" horiz-adv-x="1177" 
d="M66 496q0 142 61.5 258.5t182 188t278.5 71.5q159 0 280 -71.5t182.5 -188t61.5 -258.5t-61.5 -259.5t-182.5 -189.5t-280 -72q-158 0 -278.5 72t-182 189.5t-61.5 259.5zM233 1251q0 59 40.5 99.5t99.5 40.5q58 0 98.5 -40.5t40.5 -99.5t-40 -99t-99 -40t-99.5 40.5
t-40.5 98.5zM336 496q0 -122 67.5 -205.5t184.5 -83.5q118 0 186 83t68 206q0 121 -68 203.5t-186 82.5q-117 0 -184.5 -82.5t-67.5 -203.5zM666 1251q0 58 41 99t98 41q58 0 98.5 -40.5t40.5 -99.5t-40 -99t-99 -40q-57 0 -98 40.5t-41 98.5z" />
    <glyph glyph-name="divide" unicode="&#xf7;" horiz-adv-x="1046" 
d="M59 610v162h928v-162h-928zM397 322q0 52 37 88t88 36q53 0 89 -36t36 -88t-36.5 -88.5t-88.5 -36.5q-51 0 -88 36.5t-37 88.5zM397 1057q0 51 37 87t88 36q52 0 88.5 -36t36.5 -87q0 -53 -36.5 -90t-88.5 -37q-51 0 -88 37.5t-37 89.5z" />
    <glyph glyph-name="oslash" unicode="&#xf8;" horiz-adv-x="1177" 
d="M66 496q0 142 61.5 258.5t182 188t278.5 71.5q165 0 289 -78l45 53h163l-112 -131q139 -145 139 -362q0 -142 -61.5 -259.5t-182.5 -189.5t-280 -72q-166 0 -295 82l-49 -57h-162l117 137q-133 145 -133 359zM336 496q0 -88 35 -156l346 408q-55 34 -129 34
q-117 0 -184.5 -82.5t-67.5 -203.5zM453 246q58 -39 135 -39q118 0 186 83t68 206q0 88 -39 161z" />
    <glyph glyph-name="ugrave" unicode="&#xf9;" horiz-adv-x="1185" 
d="M129 287v702h260v-600q0 -98 47 -140t135 -42q70 0 129 32t97 80v670h260v-989h-260v125q-59 -64 -147.5 -107t-200.5 -43q-159 0 -239.5 82t-80.5 230zM250 1434h239l275 -295h-182z" />
    <glyph glyph-name="uacute" unicode="&#xfa;" horiz-adv-x="1185" 
d="M129 287v702h260v-600q0 -98 47 -140t135 -42q70 0 129 32t97 80v670h260v-989h-260v125q-59 -64 -147.5 -107t-200.5 -43q-159 0 -239.5 82t-80.5 230zM428 1139l274 295h240l-332 -295h-182z" />
    <glyph glyph-name="ucircumflex" unicode="&#xfb;" horiz-adv-x="1185" 
d="M129 287v702h260v-600q0 -98 47 -140t135 -42q70 0 129 32t97 80v670h260v-989h-260v125q-59 -64 -147.5 -107t-200.5 -43q-159 0 -239.5 82t-80.5 230zM289 1139l188 295h234l192 -295h-160l-149 182l-145 -182h-160z" />
    <glyph glyph-name="udieresis" unicode="&#xfc;" horiz-adv-x="1185" 
d="M129 287v702h260v-600q0 -98 47 -140t135 -42q70 0 129 32t97 80v670h260v-989h-260v125q-59 -64 -147.5 -107t-200.5 -43q-159 0 -239.5 82t-80.5 230zM244 1251q0 59 40.5 99.5t98.5 40.5t98.5 -40.5t40.5 -99.5t-40 -99t-99 -40t-99 40t-40 99zM676 1251q0 58 41 99
t98 41q58 0 98.5 -40.5t40.5 -99.5t-40 -99t-99 -40q-57 0 -98 40.5t-41 98.5z" />
    <glyph glyph-name="yacute" unicode="&#xfd;" horiz-adv-x="1050" 
d="M-12 989h278l258 -688l260 688h279l-465 -1151q-52 -131 -144 -183.5t-231 -55.5q-77 0 -127 16l37 231q37 -16 82 -16q103 0 137 72l37 86zM358 1139l275 295h239l-331 -295h-183z" />
    <glyph glyph-name="thorn" unicode="&#xfe;" horiz-adv-x="1193" 
d="M129 -377v1743h260v-502q119 150 305 150q195 0 317 -138t122 -380t-122 -381.5t-317 -139.5q-183 0 -305 152v-504h-260zM389 322q33 -48 97 -81.5t126 -33.5q112 0 182 80t70 209q0 128 -70 207t-182 79q-63 0 -126 -31.5t-97 -80.5v-348z" />
    <glyph glyph-name="ydieresis" unicode="&#xff;" horiz-adv-x="1050" 
d="M-12 989h278l258 -688l260 688h279l-465 -1151q-52 -131 -144 -183.5t-231 -55.5q-77 0 -127 16l37 231q37 -16 82 -16q103 0 137 72l37 86zM170 1251q0 59 40.5 99.5t98.5 40.5q59 0 99.5 -40.5t40.5 -99.5q0 -58 -40.5 -98.5t-99.5 -40.5t-99 40t-40 99zM602 1251
q0 58 41 99t98 41q59 0 99.5 -40.5t40.5 -99.5q0 -58 -40.5 -98.5t-99.5 -40.5q-57 0 -98 40.5t-41 98.5z" />
    <glyph glyph-name="OE" unicode="&#x152;" horiz-adv-x="2220" 
d="M70 682q0 204 88 365t244 250t352 89q120 0 232.5 -46.5t180.5 -133.5v160h965v-256h-674v-287h660v-256h-660v-311h674v-256h-965v160q-68 -89 -181 -137t-232 -48q-196 0 -352.5 90t-244 251.5t-87.5 365.5zM369 682q0 -195 116 -322t310 -127q125 0 223 62.5
t149 175.5v424q-50 114 -147.5 173.5t-224.5 59.5q-195 0 -310.5 -125t-115.5 -321z" />
    <glyph glyph-name="oe" unicode="&#x153;" horiz-adv-x="1906" 
d="M66 496q0 142 61.5 258.5t182 188t278.5 71.5q73 0 136.5 -20t111 -56.5t78 -68.5t61.5 -74q142 219 379 219q221 0 358 -150.5t137 -392.5v-61h-735q14 -96 89 -159t194 -63q66 0 141 27t123 70l117 -172q-74 -66 -182 -102t-226 -36q-78 0 -143.5 19.5t-113 55
t-79 68.5t-61.5 77q-30 -42 -60.5 -75t-77.5 -69t-110.5 -56t-136.5 -20q-158 0 -278.5 72t-182 189.5t-61.5 259.5zM336 496q0 -128 69.5 -209.5t182.5 -81.5q115 0 184.5 81t69.5 210q0 127 -69.5 206.5t-184.5 79.5q-113 0 -182.5 -79.5t-69.5 -206.5zM1110 590h487
q-2 38 -16.5 73t-42 67t-75.5 51.5t-109 19.5q-112 0 -173.5 -63.5t-70.5 -147.5z" />
    <glyph glyph-name="Ydieresis" unicode="&#x178;" horiz-adv-x="1320" 
d="M-8 1366h332l338 -547l337 547h330l-522 -807v-559h-291v559zM309 1606q0 58 40.5 98.5t99.5 40.5t99 -40.5t40 -98.5q0 -59 -40.5 -99.5t-98.5 -40.5q-59 0 -99.5 41t-40.5 99zM741 1606q0 58 41.5 98.5t98.5 40.5q59 0 99 -40.5t40 -98.5q0 -59 -40.5 -99.5
t-98.5 -40.5q-57 0 -98.5 41t-41.5 99z" />
    <glyph glyph-name="circumflex" unicode="&#x2c6;" horiz-adv-x="614" 
d="M0 1139l188 295h234l192 -295h-159l-150 182l-145 -182h-160z" />
    <glyph glyph-name="tilde" unicode="&#x2dc;" horiz-adv-x="669" 
d="M0 1147q0 131 57 202.5t164 71.5q38 0 69.5 -14t52 -34.5t38 -40.5t37.5 -34t41 -14q33 0 53 31.5t20 93.5h138q0 -131 -56 -202.5t-163 -71.5q-39 0 -70.5 14.5t-52 35t-38.5 40.5t-38 34.5t-41 14.5q-33 0 -53.5 -32t-20.5 -95h-137z" />
    <glyph glyph-name="uni2000" unicode="&#x2000;" horiz-adv-x="924" 
 />
    <glyph glyph-name="uni2001" unicode="&#x2001;" horiz-adv-x="1849" 
 />
    <glyph glyph-name="uni2002" unicode="&#x2002;" horiz-adv-x="924" 
 />
    <glyph glyph-name="uni2003" unicode="&#x2003;" horiz-adv-x="1849" 
 />
    <glyph glyph-name="uni2004" unicode="&#x2004;" horiz-adv-x="616" 
 />
    <glyph glyph-name="uni2005" unicode="&#x2005;" horiz-adv-x="462" 
 />
    <glyph glyph-name="uni2006" unicode="&#x2006;" horiz-adv-x="308" 
 />
    <glyph glyph-name="uni2007" unicode="&#x2007;" horiz-adv-x="308" 
 />
    <glyph glyph-name="uni2008" unicode="&#x2008;" horiz-adv-x="231" 
 />
    <glyph glyph-name="uni2009" unicode="&#x2009;" horiz-adv-x="369" 
 />
    <glyph glyph-name="uni200A" unicode="&#x200a;" horiz-adv-x="102" 
 />
    <glyph glyph-name="uni2010" unicode="&#x2010;" horiz-adv-x="614" 
d="M61 385v221h492v-221h-492z" />
    <glyph glyph-name="uni2011" unicode="&#x2011;" horiz-adv-x="614" 
d="M61 385v221h492v-221h-492z" />
    <glyph glyph-name="figuredash" unicode="&#x2012;" horiz-adv-x="614" 
d="M61 385v221h492v-221h-492z" />
    <glyph glyph-name="endash" unicode="&#x2013;" horiz-adv-x="1214" 
d="M61 385v221h1092v-221h-1092z" />
    <glyph glyph-name="emdash" unicode="&#x2014;" horiz-adv-x="1705" 
d="M61 385v221h1584v-221h-1584z" />
    <glyph glyph-name="quoteleft" unicode="&#x2018;" horiz-adv-x="522" 
d="M80 1008q0 113 56.5 212.5t154.5 168.5l112 -93q-51 -27 -98.5 -83.5t-60.5 -110.5q9 6 41 6q59 0 99 -41t40 -106q0 -66 -48 -114t-114 -48q-76 0 -129 56.5t-53 152.5z" />
    <glyph glyph-name="quoteright" unicode="&#x2019;" horiz-adv-x="522" 
d="M96 1225q0 66 48 113.5t114 47.5q76 0 129 -56t53 -152q0 -113 -56.5 -212.5t-154.5 -168.5l-112 92q51 27 98 83.5t59 110.5q-9 -6 -38 -6q-59 0 -99.5 41.5t-40.5 106.5z" />
    <glyph glyph-name="quotesinglbase" unicode="&#x201a;" horiz-adv-x="522" 
d="M96 145q0 67 48 115.5t114 48.5q76 0 129 -56.5t53 -152.5q0 -113 -56.5 -212.5t-154.5 -168.5l-112 93q51 27 98 83.5t59 108.5q-18 -6 -38 -6q-59 0 -99.5 41.5t-40.5 105.5z" />
    <glyph glyph-name="quotedblleft" unicode="&#x201c;" horiz-adv-x="940" 
d="M82 1008q0 113 56.5 212.5t154.5 168.5l113 -93q-51 -27 -99 -83.5t-61 -110.5q12 6 41 6q59 0 99 -41t40 -106q0 -66 -48 -114t-114 -48q-76 0 -129 56.5t-53 152.5zM500 1008q0 113 56.5 212.5t154.5 168.5l112 -93q-52 -27 -99.5 -84t-59.5 -110q9 6 41 6q59 0 98 -41
t39 -106q0 -66 -47 -114t-113 -48q-76 0 -129 56.5t-53 152.5z" />
    <glyph glyph-name="quotedblright" unicode="&#x201d;" horiz-adv-x="940" 
d="M96 1225q0 66 48 113.5t114 47.5q76 0 129 -56t53 -152q0 -113 -56.5 -212.5t-154.5 -168.5l-112 92q51 27 98 83.5t59 110.5q-9 -6 -38 -6q-59 0 -99.5 41.5t-40.5 106.5zM514 1225q0 66 47 113.5t113 47.5q76 0 129 -56t53 -152q0 -113 -56.5 -212.5t-154.5 -168.5
l-113 92q52 28 100 84.5t60 109.5q-9 -6 -41 -6q-59 0 -98 41.5t-39 106.5z" />
    <glyph glyph-name="quotedblbase" unicode="&#x201e;" horiz-adv-x="940" 
d="M96 145q0 67 48 115.5t114 48.5q76 0 129 -56.5t53 -152.5q0 -113 -56.5 -212.5t-154.5 -168.5l-112 93q51 27 98 83.5t59 108.5q-18 -6 -38 -6q-59 0 -99.5 41.5t-40.5 105.5zM514 145q0 68 47 116t113 48q76 0 129 -56.5t53 -152.5q0 -113 -56.5 -212.5t-154.5 -168.5
l-113 93q52 27 100 83.5t60 108.5q-18 -6 -41 -6q-59 0 -98 41.5t-39 105.5z" />
    <glyph glyph-name="bullet" unicode="&#x2022;" horiz-adv-x="733" 
d="M125 496q0 101 71.5 172t172.5 71t172 -71t71 -172q0 -100 -71 -171t-172 -71t-172.5 71t-71.5 171z" />
    <glyph glyph-name="ellipsis" unicode="&#x2026;" horiz-adv-x="1572" 
d="M98 143q0 68 48.5 117t115.5 49q68 0 117 -49.5t49 -116.5q0 -66 -49.5 -114.5t-116.5 -48.5t-115.5 48.5t-48.5 114.5zM623 143q0 68 48 117t115 49q68 0 117 -49.5t49 -116.5q0 -66 -49.5 -114.5t-116.5 -48.5t-115 48.5t-48 114.5zM1147 143q0 68 48.5 117t115.5 49
t116.5 -49.5t49.5 -116.5q0 -66 -49.5 -114.5t-116.5 -48.5t-115.5 48.5t-48.5 114.5z" />
    <glyph glyph-name="uni202F" unicode="&#x202f;" horiz-adv-x="369" 
 />
    <glyph glyph-name="guilsinglleft" unicode="&#x2039;" horiz-adv-x="692" 
d="M61 498l328 362h242l-328 -362l328 -369h-242z" />
    <glyph glyph-name="guilsinglright" unicode="&#x203a;" horiz-adv-x="692" 
d="M61 129l328 369l-328 362h242l328 -362l-328 -369h-242z" />
    <glyph glyph-name="uni205F" unicode="&#x205f;" horiz-adv-x="462" 
 />
    <glyph glyph-name="Euro" unicode="&#x20ac;" horiz-adv-x="1452" 
d="M43 461v162h76q-2 18 -2 59q0 43 2 66h-76v161h107q69 220 257.5 350t438.5 130q108 0 200.5 -27.5t161 -76t119 -105t88.5 -125.5l-250 -123q-44 86 -131 142t-188 56q-124 0 -223 -59t-154 -162h500v-161h-549q-4 -23 -4 -66q0 -41 2 -59h551v-162h-502
q53 -106 152.5 -167t226.5 -61q101 0 188 56.5t131 142.5l250 -121q-39 -69 -88.5 -125.5t-118.5 -105.5t-161.5 -77t-200.5 -28q-252 0 -442 131.5t-257 354.5h-104z" />
    <glyph glyph-name="trademark" unicode="&#x2122;" horiz-adv-x="929" 
d="M35 1313v53h311v-53h-127v-398h-57v398h-127zM420 915v451h88l131 -328l131 328h88v-451h-57v373l-154 -373h-16l-154 373v-373h-57z" />
    <glyph glyph-name="uniE000" unicode="&#xe000;" horiz-adv-x="993" 
d="M0 0v993h993v-993h-993z" />
  </font>
</defs></svg>
